Alpha: .1449584961e-4

L2: 1.25530438638277e-005

C: .0256358690177811

.1000000000e-1 .0314330664610144 .3141075908e-1
.3000000000e-1 .0925859887682386 .9410831333e-1
.5000000000e-1 .151162888168911 .1564344651
.7000000000e-1 .212570104986967 .2181432414
.9000000000e-1 .268732785417549 .2789911061
.1100000000 .322354411117074 .3387379203
.1300000000 .382444908617654 .3971478907
.1500000000 .447274570119995 .4539904998
.1700000000 .512344816066616 .5090414158
.1900000000 .568432999171513 .5620833779
.2100000000 .614358993789772 .6129070537
.2300000000 .670491772124382 .6613118654
.2500000000 .715848683676352 .7071067810
.2700000000 .749686530265314 .7501110697
.2900000000 .784758318538031 .7901550125
.3100000000 .811819808133462 .8270805743
.3300000000 .850412001843285 .8607420272
.3500000000 .893276397982845 .8910065243
.3700000000 .925853714955684 .9177546258
.3900000000 .951482272410972 .9408807690
.4100000000 .964722996287866 .9602936857
.4300000000 .974111214708402 .9759167619
.4500000000 .998197085071803 .9876883406
.4700000000 1.01389499650975 .9955619646
.4900000000 1.01821471599499 .9995065604
.5100000000 1.01753625828597 .9995065604
.5300000000 1.00901562731799 .9955619646
.5500000000 .992072066945883 .9876883406
.5700000000 .97462990446257 .9759167619
.5900000000 .949406294983922 .9602936857
.6100000000 .926815334275819 .9408807690
.6300000000 .89427664462181 .9177546258
.6500000000 .865410072930177 .8910065243
.6700000000 .835106158182219 .8607420272
.6900000000 .807692238494792 .8270805743
.7100000000 .782549705029338 .7901550125
.7300000000 .748228038860338 .7501110697
.7500000000 .707133622257108 .7071067810
.7700000000 .664962866929185 .6613118654
.7900000000 .61418483433396 .6129070537
.8100000000 .565633570010991 .5620833779
.8300000000 .51544035458422 .5090414158
.8500000000 .464395008377308 .4539904998
.8700000000 .409751731727271 .3971478907
.8900000000 .351576766759995 .3387379203
.9100000000 .293235779014077 .2789911061
.9300000000 .233036854119213 .2181432414
.9500000000 .170748003908101 .1564344651
.9700000000 .105345129619809 .9410831333e-1
.9900000000 .0361462002541019 .3141075908e-1
