Alpha: .2288818360e-5

L2: .00169936830882034

C: .00321590409366884

0. 0. 0.
.2000000000e-1 .0627013801933278 .6279051954e-1
.4000000000e-1 .125154553000221 .1253332336
.6000000000e-1 .187115119218059 .1873813146
.8000000000e-1 .248338598253019 .2486898872
.1000000000 .308587725890003 .3090169944
.1200000000 .367630490718355 .3681245527
.1400000000 .425232147065588 .4257792917
.1600000000 .481157364596906 .4817536741
.1800000000 .535175254844588 .5358267950
.2000000000 .587069134519159 .5877852524
.2200000000 .636638491370313 .6374239898
.2400000000 .68367959350641 .6845471060
.2600000000 .728006882711164 .7289686275
.2800000000 .769454285581405 .7705132428
.3000000000 .80786292074512 .8090169944
.3200000000 .843090780093217 .8443279254
.3400000000 .874993534227824 .8763066799
.3600000000 .903432405450313 .9048270523
.3800000000 .928289518120529 .9297764861
.4000000000 .949465157692104 .9510565165
.4200000000 .966883828328963 .9685831613
.4400000000 .980485961506993 .9822872508
.4600000000 .990209310823917 .9921147014
.4800000000 .996012782201454 .9980267284
.5000000000 .997879627206068 1.
.5200000000 .995810799518346 .9980267284
.5400000000 .989827528722389 .9921147013
.5600000000 .979971317589043 .9822872507
.5800000000 .966294958414716 .9685831611
.6000000000 .948869137453342 .9510565163
.6200000000 .927770661898167 .9297764860
.6400000000 .903094570234417 .9048270522
.6600000000 .874939132292444 .8763066797
.6800000000 .843410515564181 .8443279252
.7000000000 .808617827513181 .8090169941
.7200000000 .770673597547989 .7705132425
.7400000000 .729705859145045 .7289686272
.7600000000 .685855809849453 .6845471057
.7800000000 .639272062338596 .6374239896
.8000000000 .590119018106269 .5877852522
.8200000000 .538565772825909 .5358267949
.8400000000 .48479084740518 .4817536741
.8600000000 .428982069588331 .4257792916
.8800000000 .371340455993669 .3681245519
.9000000000 .312081163359116 .3090169936
.9200000000 .251430837143932 .2486898865
.9400000000 .189630703695168 .1873813140
.9600000000 .126938090204433 .1253332330
.9800000000 .0636289430995552 .6279051905e-1
1.000000000 0. 0.
